{
    "type": "service_account",
    "project_id": "fir-function-realtime",
    "private_key_id": "a59cebf708c4103e7a442c32a6913936a25ca2a9",
    "private_key": "-----BEGIN PRIVATE KEY-----\nMIIEvAIBADANBgkqhkiG9w0BAQEFAASCBKYwggSiAgEAAoIBAQDI15pR/jMfo+MG\nmF1qDwTyVCNTiyVxyOheFY5vTBFKwo9H0F1iKJ3m5cFJsb0uB1ZZbZ+qfjyzsR2K\npj8RvnskZ3Yka0pzjZSrsoauvnVyxR8ODgXTgnnjZQq0n26CmJX0smJ8nZwHS08L\npQf9YPGHPRXSTLy/6dY9Ktr5cPmYuCR17e0LpHAwWObXsJZV66jjFt9+98mFqH0i\n5ywGlWYNJi0BwxiEbT1UKks3gs+xezdOepVSzvr9ZkB9rYbC3OWRHS70tEAydj/f\nSvNxJkn8SZAZJygrcBa7nDfBYsndE0SHYHg/hrlXHkttxv3Dz6NkdwY7xB6hZSXX\nkklpSLd9AgMBAAECggEAEd+gxoPmeCi1RISnaOU18ybqZJNGiCNxYnttS0RWvvN6\nSCbSmLC1VLNvtHzn3BfKZyJVX5k6Z7dvF0QHlYRWddKV9f8XshmQeIiRFINd9RJ2\nhWFZbWL4MUobCMtYzLCC792MMZDeg4ZVM4ZtTpmjr6hlBRZ6hGMYA3uJNJe0RBM+\ny+tk1xbDgb5GTJbalcWQiyeCIoboEmyHwN9X6f6bwaxoZ+WeLg0Dhz90zye8786I\nXcX2D3cX1WO61nKDEueW3W2ueqYmRZaqXwHOxMPgKVqkeUr8DCbcnxgkwy+ljINB\nutD3XaKOjohD8ncqdsWq7FmoAU/ObpyhxT5Foip5dQKBgQDl1gxTrX1CB0+SadBc\ns7NNkjeJaNkxd64t0/9Hujjx78Ss1jJwq6ff+imI37US6VtryOg8ae5WKLAPSPKk\ny87HpSkc1Wqvw9gFV277z2xD5C97TXtj5YM6P/W9H3zR9Dz8mwOPhTjXxiCRIZnG\nToAvfXT3NR/xwQG42StBeXdjswKBgQDftJrpih9IW2B/+i5kLsJ9UPU570WtMla9\nvZXwFzo2kGc3yp5VFCKoAKMS53Tztk/sdSBoYqFwanNgcSQZ5WGGLpavRlbhxxwO\nxNVv44JMGAIQhrHPG9mpHX630dsM9ObNrWsyF0JFL3uXrXflkiC4RcrAk1PRafYs\nX67CCh6gDwKBgGcWWdMSZrM9+jfOlDFwPIUXhydvyrNAXfSaOM8gPLhvdcScEmWs\n6JAycXy98ka4OlQe+eNXFBq7BzTj4EmATJAJiWYwZzjM29CRhesV/xZ4e7+PYj/N\nSs3OsFcSj3bQWKZolPFDrNpDOIpACuwCe8ZRPCxBPMG/cxlI9vjYFW+3AoGAXVRu\nJOz5LCjjU8E+xZE0ly/Ff4wx15Ze1f5YpbgrE0Sfq4kfEYO7CbhqUKK8CkmPgqlD\nAgnULKBczmmllCA81cxuFWYVLVDyhb7dBTc3zyNdCSQI3s1Ru9qQWYR2DSvHdxvY\n0ycdANxUhe1bTi3u9LI5aqqMl5vLlqu8rzull0UCgYB3GfJtAEHTXuOKqFtodAtO\nZSssxIw778GuQWTxuMebfqNVbJrQUPe61uL16v9JYmdqsi/6j39VojClQ20SncKe\nDYbHUJcSG7QJMeDdGPakS4ZxeaUFT4hHNxEHa8BOGAJG4ja7h01VwRZHtemdMR45\n1FQDf5kkNz5MeGwNAgkUcg==\n-----END PRIVATE KEY-----\n",
    "client_email": "firebase-adminsdk-6nitf@fir-function-realtime.iam.gserviceaccount.com",
    "client_id": "105366184358287841599",
    "auth_uri": "https://accounts.google.com/o/oauth2/auth",
    "token_uri": "https://oauth2.googleapis.com/token",
    "auth_provider_x509_cert_url": "https://www.googleapis.com/oauth2/v1/certs",
    "client_x509_cert_url": "https://www.googleapis.com/robot/v1/metadata/x509/firebase-adminsdk-6nitf%40fir-function-realtime.iam.gserviceaccount.com"
}